simulation/modelsim/msim_transcript
# Reading C:/altera/13.0sp1/modelsim_ase/tcl/vsim/pref.tcl 
# do Single_Cycle_Processor_run_msim_rtl_verilog.do 
# if {[file exists rtl_work]} {
# 	vdel -lib rtl_work -all
# }
# vlib rtl_work
# vmap work rtl_work
# Copying C:\altera\13.0sp1\modelsim_ase\win32aloem/../modelsim.ini to modelsim.ini
# Modifying modelsim.ini
# ** Warning: Copied C:\altera\13.0sp1\modelsim_ase\win32aloem/../modelsim.ini to modelsim.ini.
#          Updated modelsim.ini.
# 
# vlog -sv -work work +incdir+C:/Faculdade/2024-1/LAOC/Processor\ 16\ bits/CPU_v0.3 {C:/Faculdade/2024-1/LAOC/Processor 16 bits/CPU_v0.3/typedefs.sv}
# Model Technology ModelSim ALTERA vlog 10.1d Compiler 2012.11 Nov  2 2012
# -- Compiling package typedefs
# 
# Top level modules:
# 	--none--
# vlog -sv -work work +incdir+C:/Faculdade/2024-1/LAOC/Processor\ 16\ bits/CPU_v0.3 {C:/Faculdade/2024-1/LAOC/Processor 16 bits/CPU_v0.3/RegFile.sv}
# Model Technology ModelSim ALTERA vlog 10.1d Compiler 2012.11 Nov  2 2012
# -- Compiling module RegFile
# 
# Top level modules:
# 	RegFile
# vlog -sv -work work +incdir+C:/Faculdade/2024-1/LAOC/Processor\ 16\ bits/CPU_v0.3 {C:/Faculdade/2024-1/LAOC/Processor 16 bits/CPU_v0.3/Reg.sv}
# Model Technology ModelSim ALTERA vlog 10.1d Compiler 2012.11 Nov  2 2012
# -- Compiling module Reg
# 
# Top level modules:
# 	Reg
# vlog -sv -work work +incdir+C:/Faculdade/2024-1/LAOC/Processor\ 16\ bits/CPU_v0.3 {C:/Faculdade/2024-1/LAOC/Processor 16 bits/CPU_v0.3/Mux2x1.sv}
# Model Technology ModelSim ALTERA vlog 10.1d Compiler 2012.11 Nov  2 2012
# -- Compiling module Mux2x1
# 
# Top level modules:
# 	Mux2x1
# vlog -sv -work work +incdir+C:/Faculdade/2024-1/LAOC/Processor\ 16\ bits/CPU_v0.3 {C:/Faculdade/2024-1/LAOC/Processor 16 bits/CPU_v0.3/Mem.sv}
# Model Technology ModelSim ALTERA vlog 10.1d Compiler 2012.11 Nov  2 2012
# -- Compiling module Mem
# 
# Top level modules:
# 	Mem
# vlog -sv -work work +incdir+C:/Faculdade/2024-1/LAOC/Processor\ 16\ bits/CPU_v0.3 {C:/Faculdade/2024-1/LAOC/Processor 16 bits/CPU_v0.3/Data_Mem.sv}
# Model Technology ModelSim ALTERA vlog 10.1d Compiler 2012.11 Nov  2 2012
# -- Compiling module Data_Mem
# 
# Top level modules:
# 	Data_Mem
# vlog -sv -work work +incdir+C:/Faculdade/2024-1/LAOC/Processor\ 16\ bits/CPU_v0.3 {C:/Faculdade/2024-1/LAOC/Processor 16 bits/CPU_v0.3/SingleCycle_Top.sv}
# Model Technology ModelSim ALTERA vlog 10.1d Compiler 2012.11 Nov  2 2012
# -- Compiling module SingleCycle_Top
# -- Importing package typedefs
# 
# Top level modules:
# 	SingleCycle_Top
# vlog -sv -work work +incdir+C:/Faculdade/2024-1/LAOC/Processor\ 16\ bits/CPU_v0.3 {C:/Faculdade/2024-1/LAOC/Processor 16 bits/CPU_v0.3/Controller.sv}
# Model Technology ModelSim ALTERA vlog 10.1d Compiler 2012.11 Nov  2 2012
# -- Compiling module Controller
# -- Importing package typedefs
# 
# Top level modules:
# 	Controller
# vlog -sv -work work +incdir+C:/Faculdade/2024-1/LAOC/Processor\ 16\ bits/CPU_v0.3 {C:/Faculdade/2024-1/LAOC/Processor 16 bits/CPU_v0.3/ALU.sv}
# Model Technology ModelSim ALTERA vlog 10.1d Compiler 2012.11 Nov  2 2012
# -- Compiling module ALU
# -- Importing package typedefs
# 
# Top level modules:
# 	ALU
# 
# vlog -sv -work work +incdir+C:/Faculdade/2024-1/LAOC/Processor\ 16\ bits/CPU_v0.3 {C:/Faculdade/2024-1/LAOC/Processor 16 bits/CPU_v0.3/SingleCycle_Top_tb.sv}
# Model Technology ModelSim ALTERA vlog 10.1d Compiler 2012.11 Nov  2 2012
# -- Compiling module SingleCycle_Top_tb
# -- Importing package typedefs
# 
# Top level modules:
# 	SingleCycle_Top_tb
# 
# vsim -t 1ps -L altera_ver -L lpm_ver -L sgate_ver -L altera_mf_ver -L altera_lnsim_ver -L fiftyfivenm_ver -L rtl_work -L work -voptargs="+acc"  SingleCycle_Top_tb
# vsim -L altera_ver -L lpm_ver -L sgate_ver -L altera_mf_ver -L altera_lnsim_ver -L fiftyfivenm_ver -L rtl_work -L work -voptargs=\"+acc\" -t 1ps SingleCycle_Top_tb 
# Loading sv_std.std
# Loading work.typedefs
# Loading work.SingleCycle_Top_tb
# ** Error: (vsim-19) Failed to access library 'fiftyfivenm_ver' at "fiftyfivenm_ver".
# 
# No such file or directory. (errno = ENOENT)
# Loading work.SingleCycle_Top
# ** Error: (vsim-19) Failed to access library 'fiftyfivenm_ver' at "fiftyfivenm_ver".
# 
# No such file or directory. (errno = ENOENT)
# Loading work.Controller
# ** Error: (vsim-19) Failed to access library 'fiftyfivenm_ver' at "fiftyfivenm_ver".
# 
# No such file or directory. (errno = ENOENT)
# Loading work.Mux2x1
# ** Error: (vsim-19) Failed to access library 'fiftyfivenm_ver' at "fiftyfivenm_ver".
# 
# No such file or directory. (errno = ENOENT)
# ** Error: (vsim-19) Failed to access library 'fiftyfivenm_ver' at "fiftyfivenm_ver".
# 
# No such file or directory. (errno = ENOENT)
# ** Error: (vsim-19) Failed to access library 'fiftyfivenm_ver' at "fiftyfivenm_ver".
# 
# No such file or directory. (errno = ENOENT)
# Loading work.Reg
# ** Error: (vsim-19) Failed to access library 'fiftyfivenm_ver' at "fiftyfivenm_ver".
# 
# No such file or directory. (errno = ENOENT)
# Loading work.Mem
# ** Error: (vsim-19) Failed to access library 'fiftyfivenm_ver' at "fiftyfivenm_ver".
# 
# No such file or directory. (errno = ENOENT)
# Loading work.RegFile
# ** Error: (vsim-19) Failed to access library 'fiftyfivenm_ver' at "fiftyfivenm_ver".
# 
# No such file or directory. (errno = ENOENT)
# ** Error: (vsim-19) Failed to access library 'fiftyfivenm_ver' at "fiftyfivenm_ver".
# 
# No such file or directory. (errno = ENOENT)
# Loading work.ALU
# ** Error: (vsim-19) Failed to access library 'fiftyfivenm_ver' at "fiftyfivenm_ver".
# 
# No such file or directory. (errno = ENOENT)
# ** Error: (vsim-19) Failed to access library 'fiftyfivenm_ver' at "fiftyfivenm_ver".
# 
# No such file or directory. (errno = ENOENT)
# ** Error: (vsim-19) Failed to access library 'fiftyfivenm_ver' at "fiftyfivenm_ver".
# 
# No such file or directory. (errno = ENOENT)
# Loading work.Data_Mem
# ** Error: (vsim-19) Failed to access library 'fiftyfivenm_ver' at "fiftyfivenm_ver".
# 
# No such file or directory. (errno = ENOENT)
# ** Error: (vsim-19) Failed to access library 'fiftyfivenm_ver' at "fiftyfivenm_ver".
# 
# No such file or directory. (errno = ENOENT)
# ** Warning: (vsim-3015) C:/Faculdade/2024-1/LAOC/Processor 16 bits/CPU_v0.3/SingleCycle_Top.sv(161): [PCDPC] - Port size (10 or 10) does not match connection size (16) for port 'addr'. The port definition is at: C:/Faculdade/2024-1/LAOC/Processor 16 bits/CPU_v0.3/Data_Mem.sv(8).
# 
#         Region: /SingleCycle_Top_tb/uut/data_mem
# ** Warning: (vsim-3015) C:/Faculdade/2024-1/LAOC/Processor 16 bits/CPU_v0.3/SingleCycle_Top.sv(161): [PCDPC] - Port size (16 or 16) does not match connection size (10) for port 'leds'. The port definition is at: C:/Faculdade/2024-1/LAOC/Processor 16 bits/CPU_v0.3/Data_Mem.sv(14).
# 
#         Region: /SingleCycle_Top_tb/uut/data_mem
# ** Warning: (vsim-3015) C:/Faculdade/2024-1/LAOC/Processor 16 bits/CPU_v0.3/SingleCycle_Top.sv(161): [PCDPC] - Port size (16 or 16) does not match connection size (8) for port 'hex0'. The port definition is at: C:/Faculdade/2024-1/LAOC/Processor 16 bits/CPU_v0.3/Data_Mem.sv(15).
# 
#         Region: /SingleCycle_Top_tb/uut/data_mem
# ** Warning: (vsim-3015) C:/Faculdade/2024-1/LAOC/Processor 16 bits/CPU_v0.3/SingleCycle_Top.sv(161): [PCDPC] - Port size (16 or 16) does not match connection size (10) for port 'hex1'. The port definition is at: C:/Faculdade/2024-1/LAOC/Processor 16 bits/CPU_v0.3/Data_Mem.sv(16).
# 
#         Region: /SingleCycle_Top_tb/uut/data_mem
# ** Warning: (vsim-3015) C:/Faculdade/2024-1/LAOC/Processor 16 bits/CPU_v0.3/SingleCycle_Top.sv(161): [PCDPC] - Port size (16 or 16) does not match connection size (6) for port 'hex2'. The port definition is at: C:/Faculdade/2024-1/LAOC/Processor 16 bits/CPU_v0.3/Data_Mem.sv(17).
# 
#         Region: /SingleCycle_Top_tb/uut/data_mem
# ** Warning: (vsim-3015) C:/Faculdade/2024-1/LAOC/Processor 16 bits/CPU_v0.3/SingleCycle_Top.sv(161): [PCDPC] - Port size (16 or 16) does not match connection size (8) for port 'hex3'. The port definition is at: C:/Faculdade/2024-1/LAOC/Processor 16 bits/CPU_v0.3/Data_Mem.sv(18).
# 
#         Region: /SingleCycle_Top_tb/uut/data_mem
# ** Warning: (vsim-3015) C:/Faculdade/2024-1/LAOC/Processor 16 bits/CPU_v0.3/SingleCycle_Top.sv(161): [PCDPC] - Port size (16 or 16) does not match connection size (8) for port 'hex4'. The port definition is at: C:/Faculdade/2024-1/LAOC/Processor 16 bits/CPU_v0.3/Data_Mem.sv(19).
# 
#         Region: /SingleCycle_Top_tb/uut/data_mem
# ** Warning: (vsim-3015) C:/Faculdade/2024-1/LAOC/Processor 16 bits/CPU_v0.3/SingleCycle_Top.sv(161): [PCDPC] - Port size (16 or 16) does not match connection size (8) for port 'hex5'. The port definition is at: C:/Faculdade/2024-1/LAOC/Processor 16 bits/CPU_v0.3/Data_Mem.sv(20).
# 
#         Region: /SingleCycle_Top_tb/uut/data_mem
# ** Warning: (vsim-3015) C:/Faculdade/2024-1/LAOC/Processor 16 bits/CPU_v0.3/SingleCycle_Top.sv(161): [PCDPC] - Port size (16 or 16) does not match connection size (10) for port 'switchs'. The port definition is at: C:/Faculdade/2024-1/LAOC/Processor 16 bits/CPU_v0.3/Data_Mem.sv(21).
# 
#         Region: /SingleCycle_Top_tb/uut/data_mem
# 
# add wave *
# view structure
# .main_pane.structure.interior.cs.body.struct
# view signals
# .main_pane.objects.interior.cs.body.tree
# run -all
# Time: 0 | CLK = 0 | RST = 1 | SW = xxxxxxxxxx | LEDS = xxxxxxxxxx | HEX0 = xx | HEX1 = xxx | HEX2 = xx | HEX3 = xx | HEX4 = xx | HEX5 = xx
# Time: 5000 | CLK = 1 | RST = 1 | SW = xxxxxxxxxx | LEDS = xxxxxxxxxx | HEX0 = xx | HEX1 = xxx | HEX2 = xx | HEX3 = xx | HEX4 = xx | HEX5 = xx
# Time: 10000 | CLK = 0 | RST = 1 | SW = xxxxxxxxxx | LEDS = xxxxxxxxxx | HEX0 = xx | HEX1 = xxx | HEX2 = xx | HEX3 = xx | HEX4 = xx | HEX5 = xx
# Time: 15000 | CLK = 1 | RST = 1 | SW = xxxxxxxxxx | LEDS = xxxxxxxxxx | HEX0 = xx | HEX1 = xxx | HEX2 = xx | HEX3 = xx | HEX4 = xx | HEX5 = xx
# Time: 20000 | CLK = 0 | RST = 0 | SW = xxxxxxxxxx | LEDS = 0000000000 | HEX0 = 00 | HEX1 = 000 | HEX2 = 00 | HEX3 = 00 | HEX4 = 00 | HEX5 = 00
# Time: 25000 | CLK = 1 | RST = 0 | SW = xxxxxxxxxx | LEDS = 0000000000 | HEX0 = 00 | HEX1 = 000 | HEX2 = 00 | HEX3 = 00 | HEX4 = 00 | HEX5 = 00
# Time: 30000 | CLK = 0 | RST = 0 | SW = xxxxxxxxxx | LEDS = 0000000000 | HEX0 = 00 | HEX1 = 000 | HEX2 = 00 | HEX3 = 00 | HEX4 = 00 | HEX5 = 00
# Time: 35000 | CLK = 1 | RST = 0 | SW = xxxxxxxxxx | LEDS = 0000000000 | HEX0 = 00 | HEX1 = 000 | HEX2 = 00 | HEX3 = 00 | HEX4 = 00 | HEX5 = 00
# Time: 40000 | CLK = 0 | RST = 1 | SW = xxxxxxxxxx | LEDS = 0000000000 | HEX0 = 00 | HEX1 = 000 | HEX2 = 00 | HEX3 = 00 | HEX4 = 00 | HEX5 = 00
# Time: 45000 | CLK = 1 | RST = 1 | SW = xxxxxxxxxx | LEDS = 0000000000 | HEX0 = 00 | HEX1 = 000 | HEX2 = 00 | HEX3 = 00 | HEX4 = 00 | HEX5 = 00
# Time: 50000 | CLK = 0 | RST = 1 | SW = xxxxxxxxxx | LEDS = 0000000000 | HEX0 = 00 | HEX1 = 000 | HEX2 = 00 | HEX3 = 00 | HEX4 = 00 | HEX5 = 00
# Time: 55000 | CLK = 1 | RST = 1 | SW = xxxxxxxxxx | LEDS = 0000000000 | HEX0 = 00 | HEX1 = 000 | HEX2 = 00 | HEX3 = 00 | HEX4 = 00 | HEX5 = 00
# Time: 60000 | CLK = 0 | RST = 1 | SW = xxxxxxxxxx | LEDS = 0000000000 | HEX0 = 00 | HEX1 = 000 | HEX2 = 00 | HEX3 = 00 | HEX4 = 00 | HEX5 = 00
# Time: 65000 | CLK = 1 | RST = 1 | SW = xxxxxxxxxx | LEDS = 0000000000 | HEX0 = 00 | HEX1 = 000 | HEX2 = 00 | HEX3 = 00 | HEX4 = 00 | HEX5 = 00
# Time: 70000 | CLK = 0 | RST = 1 | SW = xxxxxxxxxx | LEDS = 0000000000 | HEX0 = 00 | HEX1 = 000 | HEX2 = 00 | HEX3 = 00 | HEX4 = 00 | HEX5 = 00
# Time: 75000 | CLK = 1 | RST = 1 | SW = xxxxxxxxxx | LEDS = 0000000000 | HEX0 = 00 | HEX1 = 000 | HEX2 = 00 | HEX3 = 00 | HEX4 = 00 | HEX5 = 00
# Time: 80000 | CLK = 0 | RST = 1 | SW = xxxxxxxxxx | LEDS = 0000000000 | HEX0 = 00 | HEX1 = 000 | HEX2 = 00 | HEX3 = 00 | HEX4 = 00 | HEX5 = 00
# Time: 85000 | CLK = 1 | RST = 1 | SW = xxxxxxxxxx | LEDS = 0000000000 | HEX0 = 00 | HEX1 = 000 | HEX2 = 00 | HEX3 = 00 | HEX4 = 00 | HEX5 = 00
# Time: 90000 | CLK = 0 | RST = 1 | SW = xxxxxxxxxx | LEDS = 0000000000 | HEX0 = 00 | HEX1 = 000 | HEX2 = 00 | HEX3 = 00 | HEX4 = 00 | HEX5 = 00
# Time: 95000 | CLK = 1 | RST = 1 | SW = xxxxxxxxxx | LEDS = 0000000000 | HEX0 = 00 | HEX1 = 000 | HEX2 = 00 | HEX3 = 00 | HEX4 = 00 | HEX5 = 00
# Time: 100000 | CLK = 0 | RST = 1 | SW = xxxxxxxxxx | LEDS = 0000000000 | HEX0 = 00 | HEX1 = 000 | HEX2 = 00 | HEX3 = 00 | HEX4 = 00 | HEX5 = 00
# Time: 105000 | CLK = 1 | RST = 1 | SW = xxxxxxxxxx | LEDS = 0000000000 | HEX0 = 00 | HEX1 = 000 | HEX2 = 00 | HEX3 = 00 | HEX4 = 00 | HEX5 = 00
# Time: 110000 | CLK = 0 | RST = 1 | SW = xxxxxxxxxx | LEDS = 0000000000 | HEX0 = 00 | HEX1 = 000 | HEX2 = 00 | HEX3 = 00 | HEX4 = 00 | HEX5 = 00
# Time: 115000 | CLK = 1 | RST = 1 | SW = xxxxxxxxxx | LEDS = 0000000000 | HEX0 = 00 | HEX1 = 000 | HEX2 = 00 | HEX3 = 00 | HEX4 = 00 | HEX5 = 00
# Time: 120000 | CLK = 0 | RST = 1 | SW = xxxxxxxxxx | LEDS = 0000000000 | HEX0 = 00 | HEX1 = 000 | HEX2 = 00 | HEX3 = 00 | HEX4 = 00 | HEX5 = 00
# Time: 125000 | CLK = 1 | RST = 1 | SW = xxxxxxxxxx | LEDS = 0000000000 | HEX0 = 00 | HEX1 = 000 | HEX2 = 00 | HEX3 = 00 | HEX4 = 00 | HEX5 = 00
# Time: 130000 | CLK = 0 | RST = 1 | SW = xxxxxxxxxx | LEDS = 0000000000 | HEX0 = 00 | HEX1 = 000 | HEX2 = 00 | HEX3 = 00 | HEX4 = 00 | HEX5 = 00
# Time: 135000 | CLK = 1 | RST = 1 | SW = xxxxxxxxxx | LEDS = 0000000000 | HEX0 = 00 | HEX1 = 000 | HEX2 = 00 | HEX3 = 00 | HEX4 = 00 | HEX5 = 00
# Time: 140000 | CLK = 0 | RST = 1 | SW = xxxxxxxxxx | LEDS = 0000000000 | HEX0 = 00 | HEX1 = 000 | HEX2 = 00 | HEX3 = 00 | HEX4 = 00 | HEX5 = 00
# Time: 145000 | CLK = 1 | RST = 1 | SW = xxxxxxxxxx | LEDS = 0000000000 | HEX0 = 00 | HEX1 = 000 | HEX2 = 00 | HEX3 = 00 | HEX4 = 00 | HEX5 = 00
# Time: 150000 | CLK = 0 | RST = 1 | SW = xxxxxxxxxx | LEDS = 0000000000 | HEX0 = 00 | HEX1 = 000 | HEX2 = 00 | HEX3 = 00 | HEX4 = 00 | HEX5 = 00
# Time: 155000 | CLK = 1 | RST = 1 | SW = xxxxxxxxxx | LEDS = 0000000000 | HEX0 = 00 | HEX1 = 000 | HEX2 = 00 | HEX3 = 00 | HEX4 = 00 | HEX5 = 00
# Time: 160000 | CLK = 0 | RST = 1 | SW = xxxxxxxxxx | LEDS = 0000000000 | HEX0 = 00 | HEX1 = 000 | HEX2 = 00 | HEX3 = 00 | HEX4 = 00 | HEX5 = 00
# Time: 165000 | CLK = 1 | RST = 1 | SW = xxxxxxxxxx | LEDS = 0000000000 | HEX0 = 00 | HEX1 = 000 | HEX2 = 00 | HEX3 = 00 | HEX4 = 00 | HEX5 = 00
# Time: 170000 | CLK = 0 | RST = 1 | SW = xxxxxxxxxx | LEDS = 0000000000 | HEX0 = 00 | HEX1 = 000 | HEX2 = 00 | HEX3 = 00 | HEX4 = 00 | HEX5 = 00
# Time: 175000 | CLK = 1 | RST = 1 | SW = xxxxxxxxxx | LEDS = 0000000000 | HEX0 = 00 | HEX1 = 000 | HEX2 = 00 | HEX3 = 00 | HEX4 = 00 | HEX5 = 00
# Time: 180000 | CLK = 0 | RST = 1 | SW = xxxxxxxxxx | LEDS = 0000000000 | HEX0 = 00 | HEX1 = 000 | HEX2 = 00 | HEX3 = 00 | HEX4 = 00 | HEX5 = 00
# Time: 185000 | CLK = 1 | RST = 1 | SW = xxxxxxxxxx | LEDS = 0000000000 | HEX0 = 00 | HEX1 = 000 | HEX2 = 00 | HEX3 = 00 | HEX4 = 00 | HEX5 = 00
# Time: 190000 | CLK = 0 | RST = 1 | SW = xxxxxxxxxx | LEDS = 0000000000 | HEX0 = 00 | HEX1 = 000 | HEX2 = 00 | HEX3 = 00 | HEX4 = 00 | HEX5 = 00
# Time: 195000 | CLK = 1 | RST = 1 | SW = xxxxxxxxxx | LEDS = 0000000000 | HEX0 = 00 | HEX1 = 000 | HEX2 = 00 | HEX3 = 00 | HEX4 = 00 | HEX5 = 00
# Time: 200000 | CLK = 0 | RST = 1 | SW = xxxxxxxxxx | LEDS = 0000000000 | HEX0 = 00 | HEX1 = 000 | HEX2 = 00 | HEX3 = 00 | HEX4 = 00 | HEX5 = 00
# Time: 205000 | CLK = 1 | RST = 1 | SW = xxxxxxxxxx | LEDS = 0000000000 | HEX0 = 00 | HEX1 = 000 | HEX2 = 00 | HEX3 = 00 | HEX4 = 00 | HEX5 = 00
# Time: 210000 | CLK = 0 | RST = 1 | SW = xxxxxxxxxx | LEDS = 0000000000 | HEX0 = 00 | HEX1 = 000 | HEX2 = 00 | HEX3 = 00 | HEX4 = 00 | HEX5 = 00
# Time: 215000 | CLK = 1 | RST = 1 | SW = xxxxxxxxxx | LEDS = 0000000000 | HEX0 = 00 | HEX1 = 000 | HEX2 = 00 | HEX3 = 00 | HEX4 = 00 | HEX5 = 00
# Time: 220000 | CLK = 0 | RST = 1 | SW = xxxxxxxxxx | LEDS = 0000000000 | HEX0 = 00 | HEX1 = 000 | HEX2 = 00 | HEX3 = 00 | HEX4 = 00 | HEX5 = 00
# Time: 225000 | CLK = 1 | RST = 1 | SW = xxxxxxxxxx | LEDS = 0000000001 | HEX0 = 00 | HEX1 = 000 | HEX2 = 00 | HEX3 = 00 | HEX4 = 00 | HEX5 = 00
# Time: 230000 | CLK = 0 | RST = 1 | SW = xxxxxxxxxx | LEDS = 0000000001 | HEX0 = 00 | HEX1 = 000 | HEX2 = 00 | HEX3 = 00 | HEX4 = 00 | HEX5 = 00
# Time: 235000 | CLK = 1 | RST = 1 | SW = xxxxxxxxxx | LEDS = 0000000001 | HEX0 = 00 | HEX1 = 000 | HEX2 = 00 | HEX3 = 00 | HEX4 = 00 | HEX5 = 00
# Time: 240000 | CLK = 0 | RST = 1 | SW = xxxxxxxxxx | LEDS = 0000000001 | HEX0 = 00 | HEX1 = 000 | HEX2 = 00 | HEX3 = 00 | HEX4 = 00 | HEX5 = 00
# Time: 245000 | CLK = 1 | RST = 1 | SW = xxxxxxxxxx | LEDS = 0000000001 | HEX0 = 00 | HEX1 = 000 | HEX2 = 00 | HEX3 = 00 | HEX4 = 00 | HEX5 = 00
# Time: 250000 | CLK = 0 | RST = 1 | SW = xxxxxxxxxx | LEDS = 0000000001 | HEX0 = 00 | HEX1 = 000 | HEX2 = 00 | HEX3 = 00 | HEX4 = 00 | HEX5 = 00
# Time: 255000 | CLK = 1 | RST = 1 | SW = xxxxxxxxxx | LEDS = 0000000001 | HEX0 = 00 | HEX1 = 000 | HEX2 = 00 | HEX3 = 00 | HEX4 = 00 | HEX5 = 00
# Time: 260000 | CLK = 0 | RST = 1 | SW = xxxxxxxxxx | LEDS = 0000000001 | HEX0 = 00 | HEX1 = 000 | HEX2 = 00 | HEX3 = 00 | HEX4 = 00 | HEX5 = 00
# Time: 265000 | CLK = 1 | RST = 1 | SW = xxxxxxxxxx | LEDS = 0000000001 | HEX0 = 00 | HEX1 = 000 | HEX2 = 00 | HEX3 = 00 | HEX4 = 00 | HEX5 = 00
# Time: 270000 | CLK = 0 | RST = 1 | SW = xxxxxxxxxx | LEDS = 0000000001 | HEX0 = 00 | HEX1 = 000 | HEX2 = 00 | HEX3 = 00 | HEX4 = 00 | HEX5 = 00
# Time: 275000 | CLK = 1 | RST = 1 | SW = xxxxxxxxxx | LEDS = 0000000001 | HEX0 = 00 | HEX1 = 000 | HEX2 = 00 | HEX3 = 00 | HEX4 = 00 | HEX5 = 00
# Time: 280000 | CLK = 0 | RST = 1 | SW = xxxxxxxxxx | LEDS = 0000000001 | HEX0 = 00 | HEX1 = 000 | HEX2 = 00 | HEX3 = 00 | HEX4 = 00 | HEX5 = 00
# Time: 285000 | CLK = 1 | RST = 1 | SW = xxxxxxxxxx | LEDS = 0000000010 | HEX0 = 00 | HEX1 = 000 | HEX2 = 00 | HEX3 = 00 | HEX4 = 00 | HEX5 = 00
# Time: 290000 | CLK = 0 | RST = 1 | SW = xxxxxxxxxx | LEDS = 0000000010 | HEX0 = 00 | HEX1 = 000 | HEX2 = 00 | HEX3 = 00 | HEX4 = 00 | HEX5 = 00
# Time: 295000 | CLK = 1 | RST = 1 | SW = xxxxxxxxxx | LEDS = 0000000010 | HEX0 = 00 | HEX1 = 000 | HEX2 = 00 | HEX3 = 00 | HEX4 = 00 | HEX5 = 00
# Time: 300000 | CLK = 0 | RST = 1 | SW = xxxxxxxxxx | LEDS = 0000000010 | HEX0 = 00 | HEX1 = 000 | HEX2 = 00 | HEX3 = 00 | HEX4 = 00 | HEX5 = 00
# Time: 305000 | CLK = 1 | RST = 1 | SW = xxxxxxxxxx | LEDS = 0000000010 | HEX0 = 00 | HEX1 = 000 | HEX2 = 00 | HEX3 = 00 | HEX4 = 00 | HEX5 = 00
# Time: 310000 | CLK = 0 | RST = 1 | SW = xxxxxxxxxx | LEDS = 0000000010 | HEX0 = 00 | HEX1 = 000 | HEX2 = 00 | HEX3 = 00 | HEX4 = 00 | HEX5 = 00
# Time: 315000 | CLK = 1 | RST = 1 | SW = xxxxxxxxxx | LEDS = 0000000010 | HEX0 = 00 | HEX1 = 000 | HEX2 = 00 | HEX3 = 00 | HEX4 = 00 | HEX5 = 00
# Time: 320000 | CLK = 0 | RST = 1 | SW = xxxxxxxxxx | LEDS = 0000000010 | HEX0 = 00 | HEX1 = 000 | HEX2 = 00 | HEX3 = 00 | HEX4 = 00 | HEX5 = 00
# Time: 325000 | CLK = 1 | RST = 1 | SW = xxxxxxxxxx | LEDS = 0000000010 | HEX0 = 00 | HEX1 = 000 | HEX2 = 00 | HEX3 = 00 | HEX4 = 00 | HEX5 = 00
# Time: 330000 | CLK = 0 | RST = 1 | SW = xxxxxxxxxx | LEDS = 0000000010 | HEX0 = 00 | HEX1 = 000 | HEX2 = 00 | HEX3 = 00 | HEX4 = 00 | HEX5 = 00
# Time: 335000 | CLK = 1 | RST = 1 | SW = xxxxxxxxxx | LEDS = 0000000010 | HEX0 = 00 | HEX1 = 000 | HEX2 = 00 | HEX3 = 00 | HEX4 = 00 | HEX5 = 00
# Time: 340000 | CLK = 0 | RST = 1 | SW = xxxxxxxxxx | LEDS = 0000000010 | HEX0 = 00 | HEX1 = 000 | HEX2 = 00 | HEX3 = 00 | HEX4 = 00 | HEX5 = 00
# Time: 345000 | CLK = 1 | RST = 1 | SW = xxxxxxxxxx | LEDS = 0000000011 | HEX0 = 00 | HEX1 = 000 | HEX2 = 00 | HEX3 = 00 | HEX4 = 00 | HEX5 = 00
# Time: 350000 | CLK = 0 | RST = 1 | SW = xxxxxxxxxx | LEDS = 0000000011 | HEX0 = 00 | HEX1 = 000 | HEX2 = 00 | HEX3 = 00 | HEX4 = 00 | HEX5 = 00
# Time: 355000 | CLK = 1 | RST = 1 | SW = xxxxxxxxxx | LEDS = 0000000011 | HEX0 = 00 | HEX1 = 000 | HEX2 = 00 | HEX3 = 00 | HEX4 = 00 | HEX5 = 00
# Time: 360000 | CLK = 0 | RST = 1 | SW = xxxxxxxxxx | LEDS = 0000000011 | HEX0 = 00 | HEX1 = 000 | HEX2 = 00 | HEX3 = 00 | HEX4 = 00 | HEX5 = 00
# Time: 365000 | CLK = 1 | RST = 1 | SW = xxxxxxxxxx | LEDS = 0000000011 | HEX0 = 00 | HEX1 = 000 | HEX2 = 00 | HEX3 = 00 | HEX4 = 00 | HEX5 = 00
# Time: 370000 | CLK = 0 | RST = 1 | SW = xxxxxxxxxx | LEDS = 0000000011 | HEX0 = 00 | HEX1 = 000 | HEX2 = 00 | HEX3 = 00 | HEX4 = 00 | HEX5 = 00
# Time: 375000 | CLK = 1 | RST = 1 | SW = xxxxxxxxxx | LEDS = 0000000011 | HEX0 = 00 | HEX1 = 000 | HEX2 = 00 | HEX3 = 00 | HEX4 = 00 | HEX5 = 00
# Time: 380000 | CLK = 0 | RST = 1 | SW = xxxxxxxxxx | LEDS = 0000000011 | HEX0 = 00 | HEX1 = 000 | HEX2 = 00 | HEX3 = 00 | HEX4 = 00 | HEX5 = 00
# Time: 385000 | CLK = 1 | RST = 1 | SW = xxxxxxxxxx | LEDS = 0000000011 | HEX0 = 00 | HEX1 = 000 | HEX2 = 00 | HEX3 = 00 | HEX4 = 00 | HEX5 = 00
# Time: 390000 | CLK = 0 | RST = 1 | SW = xxxxxxxxxx | LEDS = 0000000011 | HEX0 = 00 | HEX1 = 000 | HEX2 = 00 | HEX3 = 00 | HEX4 = 00 | HEX5 = 00
# Time: 395000 | CLK = 1 | RST = 1 | SW = xxxxxxxxxx | LEDS = 0000000011 | HEX0 = 00 | HEX1 = 000 | HEX2 = 00 | HEX3 = 00 | HEX4 = 00 | HEX5 = 00
# Time: 400000 | CLK = 0 | RST = 1 | SW = xxxxxxxxxx | LEDS = 0000000011 | HEX0 = 00 | HEX1 = 000 | HEX2 = 00 | HEX3 = 00 | HEX4 = 00 | HEX5 = 00
# Time: 405000 | CLK = 1 | RST = 1 | SW = xxxxxxxxxx | LEDS = 0000000100 | HEX0 = 00 | HEX1 = 000 | HEX2 = 00 | HEX3 = 00 | HEX4 = 00 | HEX5 = 00
# Time: 410000 | CLK = 0 | RST = 1 | SW = xxxxxxxxxx | LEDS = 0000000100 | HEX0 = 00 | HEX1 = 000 | HEX2 = 00 | HEX3 = 00 | HEX4 = 00 | HEX5 = 00
# Time: 415000 | CLK = 1 | RST = 1 | SW = xxxxxxxxxx | LEDS = 0000000100 | HEX0 = 00 | HEX1 = 000 | HEX2 = 00 | HEX3 = 00 | HEX4 = 00 | HEX5 = 00
# Time: 420000 | CLK = 0 | RST = 1 | SW = xxxxxxxxxx | LEDS = 0000000100 | HEX0 = 00 | HEX1 = 000 | HEX2 = 00 | HEX3 = 00 | HEX4 = 00 | HEX5 = 00
# Time: 425000 | CLK = 1 | RST = 1 | SW = xxxxxxxxxx | LEDS = 0000000100 | HEX0 = 00 | HEX1 = 000 | HEX2 = 00 | HEX3 = 00 | HEX4 = 00 | HEX5 = 00
# Time: 430000 | CLK = 0 | RST = 1 | SW = xxxxxxxxxx | LEDS = 0000000100 | HEX0 = 00 | HEX1 = 000 | HEX2 = 00 | HEX3 = 00 | HEX4 = 00 | HEX5 = 00
# Time: 435000 | CLK = 1 | RST = 1 | SW = xxxxxxxxxx | LEDS = 0000000100 | HEX0 = 00 | HEX1 = 000 | HEX2 = 00 | HEX3 = 00 | HEX4 = 00 | HEX5 = 00
